Database Darkly - Database main page
…
# View(pr2)

Use View() to search the database, or filter().

pr2 %>% 
  filter(family == "Pseudocolliniidae")

# A tibble: 25 × 95
   pr2_accession domain supergroup division subdivision class order family genus
   <chr>         <chr>  <chr>      <chr>    <chr>       <chr> <chr> <chr>  <chr>
 1 HQ591486.1.1… Eukar… TSAR       Alveola… Ciliophora  Olig… Apos… Pseud… Pseu…
 2 HQ591477.1.1… Eukar… TSAR       Alveola… Ciliophora  Olig… Apos… Pseud… Pseu…
 3 HQ591480.1.1… Eukar… TSAR       Alveola… Ciliophora  Olig… Apos… Pseud… Pseu…
 4 HM561004.1.9… Eukar… TSAR       Alveola… Ciliophora  Olig… Apos… Pseud… Pseu…
 5 HQ591482.1.1… Eukar… TSAR       Alveola… Ciliophora  Olig… Apos… Pseud… Pseu…
 6 HQ591473.1.1… Eukar… TSAR       Alveola… Ciliophora  Olig… Apos… Pseud… Pseu…
 7 HQ591485.1.1… Eukar… TSAR       Alveola… Ciliophora  Olig… Apos… Pseud… Pseu…
 8 HQ591474.1.1… Eukar… TSAR       Alveola… Ciliophora  Olig… Apos… Pseud… Pseu…
 9 HQ591479.1.1… Eukar… TSAR       Alveola… Ciliophora  Olig… Apos… Pseud… Pseu…
10 HQ591472.1.1… Eukar… TSAR       Alveola… Ciliophora  Olig… Apos… Pseud… Pseu…
# ℹ 15 more rows
# ℹ 86 more variables: species <chr>, genbank_accession <chr>, start <dbl>,
#   end <dbl>, label <chr>, gene <chr>, organelle <chr>,
#   reference_sequence <int>, added_version <chr>, edited_version <chr>,
#   edited_by <chr>, edited_remark <chr>, remark <chr>, taxo_id <int>,
#   taxo_edited_version <chr>, taxo_edited_by <chr>, taxo_remark <chr>,
#   reference <chr>, mixoplankton <chr>, worms_id <int>, worms_marine <chr>, …
…
